Mixed Models Assignment
…
Figure 1. Northern Lapwing (Vanellus vanellus)

summary_lapwing1 <- lapwing1  %>%
  group_by(Bird, Year) %>%
  summarise(n = n(),
           mean_Distance_Colony_AVG=mean(Distance_Colony_AVG),
           se_Distance_Colony_AVG=sd(Distance_Colony_AVG)/sqrt(n()))

## `summarise()` has grouped output by 'Bird'. You can override using the `.groups` argument.

summary_lapwing1

## # A tibble: 24 x 5
## # Groups:   Bird [8]
##    Bird  Year      n mean_Distance_Colony_AVG se_Distance_Colony_AVG
##    <fct> <chr> <int>                    <dbl>                  <dbl>
##  1 GEBL  YearA     1                     807.                     NA
##  2 GEBL  YearB     1                     642.                     NA
##  3 GEBL  YearC     1                     797.                     NA
##  4 GROR  YearA     1                    1693.                     NA
##  5 GROR  YearB     1                    1235.                     NA
##  6 GROR  YearC     1                    1199.                     NA
##  7 ORWI  YearA     1                     778.                     NA
##  8 ORWI  YearB     1                     671.                     NA
##  9 ORWI  YearC     1                     758.                     NA
## 10 WIBL  YearA     1                     219.                     NA
## # ... with 14 more rows
…
